[
    "https://www.booking.com/hotel/cz/apartmany-broumov.en-gb.html?label=gen173nr-1FCAEoggJCAlhYSDNYBGg6iAEBmAExuAEHyAEN2AEB6AEB-AECkgIBeagCAw;sid=0e49acc9142ed28abb59ee8467c93082;ucfs=1;srpvid=fe3f64542f6c029f;srepoch=1515507369;room1=A%2CA;nflt=ht_id%3D201;hpos=1;hapos=1;dest_type=city;dest_id=-542218;srfid=3fbd2193401a10471457edf5a61e1fdfdea208feX1;from=searchresults;highlight_room=#hotelTmpl",
    "https://www.booking.com/hotel/cz/ubytovani-na-hradbach.en-gb.html?label=gen173nr-1FCAEoggJCAlhYSDNYBGg6iAEBmAExuAEHyAEN2AEB6AEB-AECkgIBeagCAw;sid=0e49acc9142ed28abb59ee8467c93082;ucfs=1;srpvid=fe3f64542f6c029f;srepoch=1515507369;room1=A%2CA;nflt=ht_id%3D201;hpos=2;hapos=2;dest_type=city;dest_id=-542218;srfid=3fbd2193401a10471457edf5a61e1fdfdea208feX2;from=searchresults;highlight_room=#hotelTmpl",
    "https://www.booking.com/hotel/cz/r-amp-j-apartmany.en-gb.html?label=gen173nr-1FCAEoggJCAlhYSDNYBGg6iAEBmAExuAEHyAEN2AEB6AEB-AECkgIBeagCAw;sid=0e49acc9142ed28abb59ee8467c93082;ucfs=1;srpvid=fe3f64542f6c029f;srepoch=1515507369;room1=A%2CA;nflt=ht_id%3D201;hpos=3;hapos=3;dest_type=city;dest_id=-542218;srfid=3fbd2193401a10471457edf5a61e1fdfdea208feX3;from=searchresults;highlight_room=#hotelTmpl",
    "https://www.booking.com/hotel/cz/penzion-jizdarna-hejtmankovice.en-gb.html?label=gen173nr-1FCAEoggJCAlhYSDNYBGg6iAEBmAExuAEHyAEN2AEB6AEB-AECkgIBeagCAw;sid=0e49acc9142ed28abb59ee8467c93082;ucfs=1;srpvid=fe3f64542f6c029f;srepoch=1515507369;room1=A%2CA;nflt=ht_id%3D201;hpos=4;hapos=4;dest_type=city;dest_id=-542218;srfid=3fbd2193401a10471457edf5a61e1fdfdea208feX4;from=searchresults;highlight_room=#hotelTmpl",
    "https://www.booking.com/hotel/cz/renesacni-mestansky-dum.en-gb.html?label=gen173nr-1FCAEoggJCAlhYSDNYBGg6iAEBmAExuAEHyAEN2AEB6AEB-AECkgIBeagCAw;sid=0e49acc9142ed28abb59ee8467c93082;ucfs=1;srpvid=fe3f64542f6c029f;srepoch=1515507369;room1=A%2CA;nflt=ht_id%3D201;hpos=5;hapos=5;dest_type=city;dest_id=-542218;srfid=3fbd2193401a10471457edf5a61e1fdfdea208feX5;from=searchresults;highlight_room=#hotelTmpl",
    "https://www.booking.com/hotel/cz/ubytovani-nad-potokem.en-gb.html?label=gen173nr-1FCAEoggJCAlhYSDNYBGg6iAEBmAExuAEHyAEN2AEB6AEB-AECkgIBeagCAw;sid=0e49acc9142ed28abb59ee8467c93082;ucfs=1;srpvid=fe3f64542f6c029f;srepoch=1515507369;room1=A%2CA;nflt=ht_id%3D201;hpos=6;hapos=6;dest_type=city;dest_id=-542218;srfid=3fbd2193401a10471457edf5a61e1fdfdea208feX6;from=searchresults;highlight_room=#hotelTmpl",
    "https://www.booking.com/hotel/cz/privat-347.en-gb.html?label=gen173nr-1FCAEoggJCAlhYSDNYBGg6iAEBmAExuAEHyAEN2AEB6AEB-AECkgIBeagCAw;sid=0e49acc9142ed28abb59ee8467c93082;ucfs=1;srpvid=fe3f64542f6c029f;srepoch=1515507369;room1=A%2CA;nflt=ht_id%3D201;hpos=7;hapos=7;dest_type=city;dest_id=-542218;srfid=3fbd2193401a10471457edf5a61e1fdfdea208feX7;from=searchresults;highlight_room=#hotelTmpl",
    "https://www.booking.com/hotel/cz/apartman-u-stadionu.en-gb.html?label=gen173nr-1FCAEoggJCAlhYSDNYBGg6iAEBmAExuAEHyAEN2AEB6AEB-AECkgIBeagCAw;sid=0e49acc9142ed28abb59ee8467c93082;ucfs=1;srpvid=fe3f64542f6c029f;srepoch=1515507369;room1=A%2CA;nflt=ht_id%3D201;hpos=8;hapos=8;dest_type=city;dest_id=-542218;srfid=3fbd2193401a10471457edf5a61e1fdfdea208feX8;from=searchresults;highlight_room=#hotelTmpl",
    "https://www.booking.com/hotel/cz/ubytovani-pod-klasterem.en-gb.html?label=gen173nr-1FCAEoggJCAlhYSDNYBGg6iAEBmAExuAEHyAEN2AEB6AEB-AECkgIBeagCAw;sid=0e49acc9142ed28abb59ee8467c93082;ucfs=1;srpvid=fe3f64542f6c029f;srepoch=1515507369;room1=A%2CA;nflt=ht_id%3D201;hpos=9;hapos=9;dest_type=city;dest_id=-542218;srfid=3fbd2193401a10471457edf5a61e1fdfdea208feX9;from=searchresults;highlight_room=#hotelTmpl",
    "https://www.booking.com/hotel/cz/restaurace-na-krizovatce.en-gb.html?label=gen173nr-1FCAEoggJCAlhYSDNYBGg6iAEBmAExuAEHyAEN2AEB6AEB-AECkgIBeagCAw;sid=0e49acc9142ed28abb59ee8467c93082;ucfs=1;aer=1;srpvid=fe3f64542f6c029f;srepoch=1515507369;room1=A%2CA;nflt=ht_id%3D201;hpos=10;hapos=10;dest_type=city;dest_id=-542218;srfid=3fbd2193401a10471457edf5a61e1fdfdea208feX10;from=searchresults;highlight_room=;spdest=ci/-542218;spdist=6.7#hotelTmpl",
    "https://www.booking.com/hotel/cz/apartment-ve-mlyne.en-gb.html?label=gen173nr-1FCAEoggJCAlhYSDNYBGg6iAEBmAExuAEHyAEN2AEB6AEB-AECkgIBeagCAw;sid=0e49acc9142ed28abb59ee8467c93082;ucfs=1;aer=1;srpvid=fe3f64542f6c029f;srepoch=1515507369;room1=A%2CA;nflt=ht_id%3D201;hpos=11;hapos=11;dest_type=city;dest_id=-542218;srfid=3fbd2193401a10471457edf5a61e1fdfdea208feX11;from=searchresults;highlight_room=;spdest=ci/-542218;spdist=11.4#hotelTmpl",
    "https://www.booking.com/hotel/cz/chalupa-relax.en-gb.html?label=gen173nr-1FCAEoggJCAlhYSDNYBGg6iAEBmAExuAEHyAEN2AEB6AEB-AECkgIBeagCAw;sid=0e49acc9142ed28abb59ee8467c93082;ucfs=1;aer=1;srpvid=fe3f64542f6c029f;srepoch=1515507369;room1=A%2CA;nflt=ht_id%3D201;hpos=12;hapos=12;dest_type=city;dest_id=-542218;srfid=3fbd2193401a10471457edf5a61e1fdfdea208feX12;from=searchresults;highlight_room=;spdest=ci/-542218;spdist=13.9#hotelTmpl",
    "https://www.booking.com/hotel/cz/apartmany-hajenka-starkov.en-gb.html?label=gen173nr-1FCAEoggJCAlhYSDNYBGg6iAEBmAExuAEHyAEN2AEB6AEB-AECkgIBeagCAw;sid=0e49acc9142ed28abb59ee8467c93082;ucfs=1;aer=1;srpvid=fe3f64542f6c029f;srepoch=1515507369;room1=A%2CA;nflt=ht_id%3D201;hpos=13;hapos=13;dest_type=city;dest_id=-542218;srfid=3fbd2193401a10471457edf5a61e1fdfdea208feX13;from=searchresults;highlight_room=;spdest=ci/-542218;spdist=15.0#hotelTmpl",
    "https://www.booking.com/hotel/cz/apartman-carpe-diem.en-gb.html?label=gen173nr-1FCAEoggJCAlhYSDNYBGg6iAEBmAExuAEHyAEN2AEB6AEB-AECkgIBeagCAw;sid=0e49acc9142ed28abb59ee8467c93082;ucfs=1;aer=1;srpvid=fe3f64542f6c029f;srepoch=1515507369;room1=A%2CA;nflt=ht_id%3D201;hpos=14;hapos=14;dest_type=city;dest_id=-542218;srfid=3fbd2193401a10471457edf5a61e1fdfdea208feX14;from=searchresults;highlight_room=;spdest=ci/-542218;spdist=11.5#hotelTmpl",
    "https://www.booking.com/hotel/cz/u-tatovy-lipy.en-gb.html?label=gen173nr-1FCAEoggJCAlhYSDNYBGg6iAEBmAExuAEHyAEN2AEB6AEB-AECkgIBeagCAw;sid=0e49acc9142ed28abb59ee8467c93082;ucfs=1;aer=1;srpvid=fe3f64542f6c029f;srepoch=1515507369;room1=A%2CA;nflt=ht_id%3D201;hpos=15;hapos=15;dest_type=city;dest_id=-542218;srfid=3fbd2193401a10471457edf5a61e1fdfdea208feX15;from=searchresults;highlight_room=;spdest=ci/-542218;spdist=16.7#hotelTmpl",
    "https://www.booking.com/hotel/cz/apartmany-kovarna.en-gb.html?aid=304142;label=gen173nr-1FCAEoggJCAlhYSDNYBGg6iAEBmAExuAEHyAEN2AEB6AEB-AECkgIBeagCAw;sid=0e49acc9142ed28abb59ee8467c93082;ucfs=1;aer=1;srpvid=df686457ef670162;srepoch=1515507374;room1=A%2CA;nflt=ht_id%3D201;hpos=1;hapos=16;dest_type=city;dest_id=-542218;srfid=3fbd2193401a10471457edf5a61e1fdfdea208feX16;from=searchresults;highlight_room=;spdest=ci/-542218;spdist=14.8#hotelTmpl",
    "https://www.booking.com/hotel/cz/apartmany-johanka.en-gb.html?aid=304142;label=gen173nr-1FCAEoggJCAlhYSDNYBGg6iAEBmAExuAEHyAEN2AEB6AEB-AECkgIBeagCAw;sid=0e49acc9142ed28abb59ee8467c93082;ucfs=1;aer=1;srpvid=df686457ef670162;srepoch=1515507374;room1=A%2CA;nflt=ht_id%3D201;hpos=2;hapos=17;dest_type=city;dest_id=-542218;srfid=3fbd2193401a10471457edf5a61e1fdfdea208feX17;from=searchresults;highlight_room=;spdest=ci/-542218;spdist=21.9#hotelTmpl",
    "https://www.booking.com/hotel/cz/apartman-novakovi.en-gb.html?aid=304142;label=gen173nr-1FCAEoggJCAlhYSDNYBGg6iAEBmAExuAEHyAEN2AEB6AEB-AECkgIBeagCAw;sid=0e49acc9142ed28abb59ee8467c93082;ucfs=1;aer=1;srpvid=df686457ef670162;srepoch=1515507374;room1=A%2CA;nflt=ht_id%3D201;hpos=3;hapos=18;dest_type=city;dest_id=-542218;srfid=3fbd2193401a10471457edf5a61e1fdfdea208feX18;from=searchresults;highlight_room=;spdest=ci/-542218;spdist=21.2#hotelTmpl",
    "https://www.booking.com/hotel/cz/priva-t-daniela.en-gb.html?aid=304142;label=gen173nr-1FCAEoggJCAlhYSDNYBGg6iAEBmAExuAEHyAEN2AEB6AEB-AECkgIBeagCAw;sid=0e49acc9142ed28abb59ee8467c93082;ucfs=1;aer=1;srpvid=df686457ef670162;srepoch=1515507374;room1=A%2CA;nflt=ht_id%3D201;hpos=4;hapos=19;dest_type=city;dest_id=-542218;srfid=3fbd2193401a10471457edf5a61e1fdfdea208feX19;from=searchresults;highlight_room=;spdest=ci/-542218;spdist=20.1#hotelTmpl",
    "https://www.booking.com/hotel/cz/ruzova-chalupa-u-simanku.en-gb.html?aid=304142;label=gen173nr-1FCAEoggJCAlhYSDNYBGg6iAEBmAExuAEHyAEN2AEB6AEB-AECkgIBeagCAw;sid=0e49acc9142ed28abb59ee8467c93082;ucfs=1;aer=1;srpvid=df686457ef670162;srepoch=1515507374;room1=A%2CA;nflt=ht_id%3D201;hpos=5;hapos=20;dest_type=city;dest_id=-542218;srfid=3fbd2193401a10471457edf5a61e1fdfdea208feX20;from=searchresults;highlight_room=;spdest=ci/-542218;spdist=20.8#hotelTmpl",
    "https://www.booking.com/hotel/cz/oranzovy-dum.en-gb.html?aid=304142;label=gen173nr-1FCAEoggJCAlhYSDNYBGg6iAEBmAExuAEHyAEN2AEB6AEB-AECkgIBeagCAw;sid=0e49acc9142ed28abb59ee8467c93082;ucfs=1;aer=1;srpvid=df686457ef670162;srepoch=1515507374;room1=A%2CA;nflt=ht_id%3D201;hpos=6;hapos=21;dest_type=city;dest_id=-542218;srfid=3fbd2193401a10471457edf5a61e1fdfdea208feX21;from=searchresults;highlight_room=;spdest=ci/-542218;spdist=20.7#hotelTmpl",
    "https://www.booking.com/hotel/cz/apartma-n-mara-ak.en-gb.html?aid=304142;label=gen173nr-1FCAEoggJCAlhYSDNYBGg6iAEBmAExuAEHyAEN2AEB6AEB-AECkgIBeagCAw;sid=0e49acc9142ed28abb59ee8467c93082;ucfs=1;aer=1;srpvid=df686457ef670162;srepoch=1515507374;room1=A%2CA;nflt=ht_id%3D201;hpos=7;hapos=22;dest_type=city;dest_id=-542218;srfid=3fbd2193401a10471457edf5a61e1fdfdea208feX22;from=searchresults;highlight_room=;spdest=ci/-542218;spdist=21.4#hotelTmpl",
    "https://www.booking.com/hotel/cz/studiovy-apartman-v-zahrade.en-gb.html?aid=304142;label=gen173nr-1FCAEoggJCAlhYSDNYBGg6iAEBmAExuAEHyAEN2AEB6AEB-AECkgIBeagCAw;sid=0e49acc9142ed28abb59ee8467c93082;ucfs=1;aer=1;srpvid=df686457ef670162;srepoch=1515507374;room1=A%2CA;nflt=ht_id%3D201;hpos=8;hapos=23;dest_type=city;dest_id=-542218;srfid=3fbd2193401a10471457edf5a61e1fdfdea208feX23;from=searchresults;highlight_room=;spdest=ci/-542218;spdist=8.7#hotelTmpl",
    "https://www.booking.com/hotel/cz/apartmany-pod-vysakem.en-gb.html?aid=304142;label=gen173nr-1FCAEoggJCAlhYSDNYBGg6iAEBmAExuAEHyAEN2AEB6AEB-AECkgIBeagCAw;sid=0e49acc9142ed28abb59ee8467c93082;ucfs=1;aer=1;srpvid=df686457ef670162;srepoch=1515507374;room1=A%2CA;nflt=ht_id%3D201;hpos=9;hapos=24;dest_type=city;dest_id=-542218;srfid=3fbd2193401a10471457edf5a61e1fdfdea208feX24;from=searchresults;highlight_room=;spdest=ci/-542218;spdist=13.5#hotelTmpl",
    "https://www.booking.com/hotel/cz/apartment-chlivce-iv.en-gb.html?aid=304142;label=gen173nr-1FCAEoggJCAlhYSDNYBGg6iAEBmAExuAEHyAEN2AEB6AEB-AECkgIBeagCAw;sid=0e49acc9142ed28abb59ee8467c93082;ucfs=1;aer=1;srpvid=df686457ef670162;srepoch=1515507374;room1=A%2CA;nflt=ht_id%3D201;hpos=10;hapos=25;dest_type=city;dest_id=-542218;srfid=3fbd2193401a10471457edf5a61e1fdfdea208feX25;from=searchresults;highlight_room=;spdest=ci/-542218;spdist=17.1#hotelTmpl",
    "https://www.booking.com/hotel/cz/apartment-chlivce-i.en-gb.html?aid=304142;label=gen173nr-1FCAEoggJCAlhYSDNYBGg6iAEBmAExuAEHyAEN2AEB6AEB-AECkgIBeagCAw;sid=0e49acc9142ed28abb59ee8467c93082;ucfs=1;aer=1;srpvid=df686457ef670162;srepoch=1515507374;room1=A%2CA;nflt=ht_id%3D201;hpos=11;hapos=26;dest_type=city;dest_id=-542218;srfid=3fbd2193401a10471457edf5a61e1fdfdea208feX26;from=searchresults;highlight_room=;spdest=ci/-542218;spdist=17.1#hotelTmpl",
    "https://www.booking.com/hotel/cz/apartment-chlivce-iii.en-gb.html?aid=304142;label=gen173nr-1FCAEoggJCAlhYSDNYBGg6iAEBmAExuAEHyAEN2AEB6AEB-AECkgIBeagCAw;sid=0e49acc9142ed28abb59ee8467c93082;ucfs=1;aer=1;srpvid=df686457ef670162;srepoch=1515507374;room1=A%2CA;nflt=ht_id%3D201;hpos=12;hapos=27;dest_type=city;dest_id=-542218;srfid=3fbd2193401a10471457edf5a61e1fdfdea208feX27;from=searchresults;highlight_room=;spdest=ci/-542218;spdist=17.1#hotelTmpl",
    "https://www.booking.com/hotel/cz/apartment-chlivce-ii.en-gb.html?aid=304142;label=gen173nr-1FCAEoggJCAlhYSDNYBGg6iAEBmAExuAEHyAEN2AEB6AEB-AECkgIBeagCAw;sid=0e49acc9142ed28abb59ee8467c93082;ucfs=1;aer=1;srpvid=df686457ef670162;srepoch=1515507374;room1=A%2CA;nflt=ht_id%3D201;hpos=13;hapos=28;dest_type=city;dest_id=-542218;srfid=3fbd2193401a10471457edf5a61e1fdfdea208feX28;from=searchresults;highlight_room=;spdest=ci/-542218;spdist=17.1#hotelTmpl",
    "https://www.booking.com/hotel/cz/apartment-horni-kostelec.en-gb.html?aid=304142;label=gen173nr-1FCAEoggJCAlhYSDNYBGg6iAEBmAExuAEHyAEN2AEB6AEB-AECkgIBeagCAw;sid=0e49acc9142ed28abb59ee8467c93082;ucfs=1;aer=1;srpvid=df686457ef670162;srepoch=1515507374;room1=A%2CA;nflt=ht_id%3D201;hpos=14;hapos=29;dest_type=city;dest_id=-542218;srfid=3fbd2193401a10471457edf5a61e1fdfdea208feX29;from=searchresults;highlight_room=;spdest=ci/-542218;spdist=18.9#hotelTmpl",
    "https://www.booking.com/hotel/cz/apartman-horni-adrspach.en-gb.html?aid=304142;label=gen173nr-1FCAEoggJCAlhYSDNYBGg6iAEBmAExuAEHyAEN2AEB6AEB-AECkgIBeagCAw;sid=0e49acc9142ed28abb59ee8467c93082;ucfs=1;aer=1;srpvid=df686457ef670162;srepoch=1515507374;room1=A%2CA;nflt=ht_id%3D201;hpos=15;hapos=30;dest_type=city;dest_id=-542218;srfid=3fbd2193401a10471457edf5a61e1fdfdea208feX30;from=searchresults;highlight_room=;spdest=ci/-542218;spdist=18.7#hotelTmpl",
    "https://www.booking.com/hotel/cz/ubytova-na-na-vejminku-vejminek-cz.en-gb.html?aid=304142;label=gen173nr-1FCAEoggJCAlhYSDNYBGg6iAEBmAExuAEHyAEN2AEB6AEB-AECkgIBeagCAw;sid=0e49acc9142ed28abb59ee8467c93082;ucfs=1;aer=1;srpvid=df686458c42605ae;srepoch=1515507376;room1=A%2CA;nflt=ht_id%3D201;hpos=1;hapos=31;dest_type=city;dest_id=-542218;srfid=3fbd2193401a10471457edf5a61e1fdfdea208feX31;from=searchresults;highlight_room=;spdest=ci/-542218;spdist=21.4#hotelTmpl",
    "https://www.booking.com/hotel/cz/apartmany-eva-batnovice.en-gb.html?aid=304142;label=gen173nr-1FCAEoggJCAlhYSDNYBGg6iAEBmAExuAEHyAEN2AEB6AEB-AECkgIBeagCAw;sid=0e49acc9142ed28abb59ee8467c93082;ucfs=1;aer=1;srpvid=df686458c42605ae;srepoch=1515507376;room1=A%2CA;nflt=ht_id%3D201;hpos=2;hapos=32;dest_type=city;dest_id=-542218;srfid=3fbd2193401a10471457edf5a61e1fdfdea208feX32;from=searchresults;highlight_room=;spdest=ci/-542218;spdist=21.5#hotelTmpl",
    "https://www.booking.com/hotel/cz/ski-apartmany-hartman-olesnice-v-orlickych-horach.en-gb.html?aid=304142;label=gen173nr-1FCAEoggJCAlhYSDNYBGg6iAEBmAExuAEHyAEN2AEB6AEB-AECkgIBeagCAw;sid=0e49acc9142ed28abb59ee8467c93082;ucfs=1;aer=1;srpvid=df686458c42605ae;srepoch=1515507376;room1=A%2CA;nflt=ht_id%3D201;hpos=3;hapos=33;dest_type=city;dest_id=-542218;srfid=3fbd2193401a10471457edf5a61e1fdfdea208feX33;from=searchresults;highlight_room=;spdest=ci/-542218;spdist=23.0#hotelTmpl",
    "https://www.booking.com/hotel/cz/pod-nachodzkim-zamkiem-nachod.en-gb.html?aid=304142;label=gen173nr-1FCAEoggJCAlhYSDNYBGg6iAEBmAExuAEHyAEN2AEB6AEB-AECkgIBeagCAw;sid=0e49acc9142ed28abb59ee8467c93082;ucfs=1;aer=1;srpvid=df686458c42605ae;srepoch=1515507376;room1=A%2CA;nflt=ht_id%3D201;hpos=4;hapos=34;dest_type=city;dest_id=-542218;srfid=3fbd2193401a10471457edf5a61e1fdfdea208feX34;from=searchresults;highlight_room=;spdest=ci/-542218;spdist=22.3#hotelTmpl",
    "https://www.booking.com/hotel/cz/apartman-alenka.en-gb.html?aid=304142;label=gen173nr-1FCAEoggJCAlhYSDNYBGg6iAEBmAExuAEHyAEN2AEB6AEB-AECkgIBeagCAw;sid=0e49acc9142ed28abb59ee8467c93082;ucfs=1;aer=1;srpvid=df686458c42605ae;srepoch=1515507376;room1=A%2CA;nflt=ht_id%3D201;hpos=5;hapos=35;dest_type=city;dest_id=-542218;srfid=3fbd2193401a10471457edf5a61e1fdfdea208feX35;from=searchresults;highlight_room=;spdest=ci/-542218;spdist=22.5#hotelTmpl",
    "https://www.booking.com/hotel/cz/aparmany-olesnice.en-gb.html?aid=304142;label=gen173nr-1FCAEoggJCAlhYSDNYBGg6iAEBmAExuAEHyAEN2AEB6AEB-AECkgIBeagCAw;sid=0e49acc9142ed28abb59ee8467c93082;ucfs=1;aer=1;srpvid=df686458c42605ae;srepoch=1515507376;room1=A%2CA;nflt=ht_id%3D201;hpos=6;hapos=36;dest_type=city;dest_id=-542218;srfid=3fbd2193401a10471457edf5a61e1fdfdea208feX36;from=searchresults;highlight_room=;spdest=ci/-542218;spdist=23.5#hotelTmpl",
    "https://www.booking.com/hotel/cz/apartmany16.en-gb.html?aid=304142;label=gen173nr-1FCAEoggJCAlhYSDNYBGg6iAEBmAExuAEHyAEN2AEB6AEB-AECkgIBeagCAw;sid=0e49acc9142ed28abb59ee8467c93082;ucfs=1;aer=1;srpvid=df686458c42605ae;srepoch=1515507376;room1=A%2CA;nflt=ht_id%3D201;hpos=7;hapos=37;dest_type=city;dest_id=-542218;srfid=3fbd2193401a10471457edf5a61e1fdfdea208feX37;from=searchresults;highlight_room=;spdest=ci/-542218;spdist=23.5#hotelTmpl",
    "https://www.booking.com/hotel/cz/apartman-na-bubnu.en-gb.html?aid=304142;label=gen173nr-1FCAEoggJCAlhYSDNYBGg6iAEBmAExuAEHyAEN2AEB6AEB-AECkgIBeagCAw;sid=0e49acc9142ed28abb59ee8467c93082;ucfs=1;aer=1;srpvid=df686458c42605ae;srepoch=1515507377;room1=A%2CA;nflt=ht_id%3D201;hpos=8;hapos=38;dest_type=city;dest_id=-542218;srfid=3fbd2193401a10471457edf5a61e1fdfdea208feX38;from=searchresults;highlight_room=;spdest=ci/-542218;spdist=24.0#hotelTmpl",
    "https://www.booking.com/hotel/cz/apartman-v-secesni-vile.en-gb.html?aid=304142;label=gen173nr-1FCAEoggJCAlhYSDNYBGg6iAEBmAExuAEHyAEN2AEB6AEB-AECkgIBeagCAw;sid=0e49acc9142ed28abb59ee8467c93082;ucfs=1;aer=1;srpvid=df686458c42605ae;srepoch=1515507377;room1=A%2CA;nflt=ht_id%3D201;hpos=9;hapos=39;dest_type=city;dest_id=-542218;srfid=3fbd2193401a10471457edf5a61e1fdfdea208feX39;from=searchresults;highlight_room=;spdest=ci/-542218;spdist=23.7#hotelTmpl",
    "https://www.booking.com/hotel/cz/pensjonat-przy-stoku.en-gb.html?aid=304142;label=gen173nr-1FCAEoggJCAlhYSDNYBGg6iAEBmAExuAEHyAEN2AEB6AEB-AECkgIBeagCAw;sid=0e49acc9142ed28abb59ee8467c93082;ucfs=1;aer=1;srpvid=df686458c42605ae;srepoch=1515507377;room1=A%2CA;nflt=ht_id%3D201;hpos=10;hapos=40;dest_type=city;dest_id=-542218;srfid=3fbd2193401a10471457edf5a61e1fdfdea208feX40;from=searchresults;highlight_room=;spdest=ci/-542218;spdist=24.1#hotelTmpl"
]